…
## Usage

treasury functions are prefixed with `tr_` and follow the naming
convention of the XML feed.

``` r
library(ggplot2)
library(treasury)

yield_curve <- tr_yield_curve(2020)
yield_curve
#> # A tibble: 3,012 × 3
#>   date       maturity  rate
#>   <date>     <chr>    <dbl>
#> 1 2020-01-02 1 month   1.53
#> 2 2020-01-02 2 month   1.55
#> 3 2020-01-02 3 month   1.54
#> 4 2020-01-02 6 month   1.57
#> 5 2020-01-02 1 year    1.56
#> # ℹ 3,007 more rows
…
