Daily treasury long-term rates — tr_long_term_rate • treasury
…
    See also

    Other interest rate:
tr_bill_rates(),
tr_real_long_term(),
tr_real_yield_curve(),
tr_yield_curve()

    Examples

# \donttest{
# get data for a single month
tr_long_term_rate("202201")
#> # A tibble: 60 × 3
#>    date       rate_type      rate
#>    <date>     <chr>         <dbl>
#>  1 2022-01-03 20 year        2.05
#>  2 2022-01-03 over 10 years  2   
#>  3 2022-01-03 real rate     -0.43
#>  4 2022-01-04 20 year        2.1 
#>  5 2022-01-04 over 10 years  2.06
#>  6 2022-01-04 real rate     -0.35
#>  7 2022-01-05 20 year        2.12
#>  8 2022-01-05 over 10 years  2.08
#>  9 2022-01-05 real rate     -0.27
#> 10 2022-01-06 20 year        2.12
#> # ℹ 50 more rows
# or for the entire year
tr_long_term_rate(2022)
#> # A tibble: 747 × 3
#>    date       rate_type      rate
#>    <date>     <chr>         <dbl>
#>  1 2022-01-03 20 year        2.05
#>  2 2022-01-03 over 10 years  2   
#>  3 2022-01-03 real rate     -0.43
#>  4 2022-01-04 20 year        2.1 
#>  5 2022-01-04 over 10 years  2.06
#>  6 2022-01-04 real rate     -0.35
#>  7 2022-01-05 20 year        2.12
#>  8 2022-01-05 over 10 years  2.08
#>  9 2022-01-05 real rate     -0.27
#> 10 2022-01-06 20 year        2.12
#> # ℹ 737 more rows
…
